{
    "total_pages": 2,
    "per_page": 25,
    "page": 1,
    "total_records": 30,
    "_links": {
      "next": {
        "href": "https://actionnetwork.org/api/v2/campaigns?page=2"
      },
      "self": {
        "href": "https://actionnetwork.org/api/v2/campaigns"
      }
    },
    "_embedded": {
      "data": [
        {
          "identifiers": [
            "action_network:e7b02e0a-a0a9-11e3-a2e9-12313d316c29"
          ],
          "origin_system": "Action Network",
          "created_date": "2013-10-02T14:21:32Z",
          "modified_date": "2013-10-02T14:22:06Z",
          "title": "Join our week of actions!",
          "description": "<p>Our week of action is here -- click the links on the right to join in!</p>",
          "browser_url": "https://actionnetwork.org/campaigns/join-our-week-of-action",
          "featured_image_url": "https://actionnetwork.org/images/week-of-action.jpg",
          "action_network:hidden": false,
          "action_network:sponsor": {
            "title": "Progressive Action Now",
            "browser_url": "https://actionnetwork.org/groups/progressive-action-now"
          },
          "actions": [
            {
              "title": "Sign the petition",
              "browser_url": "https://actionnetwork.org/petitions/sign-the-petition"
            },
            {
              "title": "Attend the rally",
              "browser_url": "https://actionnetwork.org/events/attend-the-rally"
            }
          ],
          "_links": {
            "self": {
              "href": "https://actionnetwork.org/api/v2/campaigns/e7b02e0a-a0a9-11e3-a2e9-12313d316c29"
            }
          }
        },
        {
          "identifiers": [
            "action_network:e7b0287e-a0a9-11e3-a2e9-12313d316c29"
          ],
          "origin_system": "Action Network",
          "created_date": "2013-09-30T15:55:44Z",
          "modified_date": "2014-01-16T19:07:00Z",
          "title": "Welcome to our Action Center",
          "description": "<p>Welcome to our Action Center. Take action on the right.</p>",
          "browser_url": "https://actionnetwork.org/campaigns/welcome-to-our-action-center",
          "action_network:sponsor": {
            "title": "Progressive Action Now",
            "browser_url": "https://actionnetwork.org/groups/progressive-action-now"
          },
          "actions": [
            {
              "title": "Sign up for email updates",
              "browser_url": "https://actionnetwork.org/forms/sign-up-for-email-updates"
            },
            {
              "title": "Take our survey",
              "browser_url": "https://actionnetwork.org/forms/take-our-survey"
            }
          ],
          "_links": {
            "self": {
              "href": "https://actionnetwork.org/api/v2/campaigns/e7b0287e-a0a9-11e3-a2e9-12313d316c29"
            }
          }
        }
      ]
    }
  }